%YAML 1.1
%TAG !u! tag:unity3d.com,2011:
--- !u!1 &6309804239142835185
GameObject:
  m_ObjectHideFlags: 0
  m_CorrespondingSourceObject: {fileID: 0}
  m_PrefabInstance: {fileID: 0}
  m_PrefabAsset: {fileID: 0}
  serializedVersion: 6
  m_Component:
  - component: {fileID: 6309804239142835184}
  - component: {fileID: 6309804239142835183}
  - component: {fileID: 6309804239142835182}
  - component: {fileID: 6309804239102168449}
  m_Layer: 0
  m_Name: Lightning 1
  m_TagString: Untagged
  m_Icon: {fileID: 0}
  m_NavMeshLayer: 0
  m_StaticEditorFlags: 0
  m_IsActive: 1
--- !u!4 &6309804239142835184
Transform:
  m_ObjectHideFlags: 0
  m_CorrespondingSourceObject: {fileID: 0}
  m_PrefabInstance: {fileID: 0}
  m_PrefabAsset: {fileID: 0}
  m_GameObject: {fileID: 6309804239142835185}
  m_LocalRotation: {x: 0, y: 0, z: 0, w: 1}
  m_LocalPosition: {x: 3.7354298, y: 1.5864927, z: 0}
  m_LocalScale: {x: 1, y: 1, z: 1}
  m_Children: []
  m_Father: {fileID: 0}
  m_RootOrder: 0
  m_LocalEulerAnglesHint: {x: 0, y: 0, z: 0}
--- !u!212 &6309804239142835183
SpriteRenderer:
  m_ObjectHideFlags: 0
  m_CorrespondingSourceObject: {fileID: 0}
  m_PrefabInstance: {fileID: 0}
  m_PrefabAsset: {fileID: 0}
  m_GameObject: {fileID: 6309804239142835185}
  m_Enabled: 1
  m_CastShadows: 0
  m_ReceiveShadows: 0
  m_DynamicOccludee: 1
  m_MotionVectors: 1
  m_LightProbeUsage: 1
  m_ReflectionProbeUsage: 1
  m_RenderingLayerMask: 1
  m_RendererPriority: 0
  m_Materials:
  - {fileID: 10754, guid: 0000000000000000f000000000000000, type: 0}
  m_StaticBatchInfo:
    firstSubMesh: 0
    subMeshCount: 0
  m_StaticBatchRoot: {fileID: 0}
  m_ProbeAnchor: {fileID: 0}
  m_LightProbeVolumeOverride: {fileID: 0}
  m_ScaleInLightmap: 1
  m_PreserveUVs: 0
  m_IgnoreNormalsForChartDetection: 0
  m_ImportantGI: 0
  m_StitchLightmapSeams: 0
  m_SelectedEditorRenderState: 0
  m_MinimumChartSize: 4
  m_AutoUVMaxDistance: 0.5
  m_AutoUVMaxAngle: 89
  m_LightmapParameters: {fileID: 0}
  m_SortingLayerID: -1779770371
  m_SortingLayer: 1
  m_SortingOrder: 0
  m_Sprite: {fileID: 21300000, guid: 1b24734a2f577a8468fa993a5fdcc6ed, type: 3}
  m_Color: {r: 1, g: 1, b: 1, a: 1}
  m_FlipX: 0
  m_FlipY: 0
  m_DrawMode: 0
  m_Size: {x: 2.6666667, y: 9.88}
  m_AdaptiveModeThreshold: 0.5
  m_SpriteTileMode: 0
  m_WasSpriteAssigned: 1
  m_MaskInteraction: 0
  m_SpriteSortPoint: 0
--- !u!60 &6309804239142835182
PolygonCollider2D:
  m_ObjectHideFlags: 0
  m_CorrespondingSourceObject: {fileID: 0}
  m_PrefabInstance: {fileID: 0}
  m_PrefabAsset: {fileID: 0}
  m_GameObject: {fileID: 6309804239142835185}
  m_Enabled: 1
  m_Density: 1
  m_Material: {fileID: 0}
  m_IsTrigger: 0
  m_UsedByEffector: 0
  m_UsedByComposite: 0
  m_Offset: {x: 0, y: 0}
  m_SpriteTilingProperty:
    border: {x: 0, y: 0, z: 0, w: 0}
    pivot: {x: 0.5, y: 0.5}
    oldSize: {x: 2.6666667, y: 9.88}
    newSize: {x: 2.6666667, y: 9.88}
    adaptiveTilingThreshold: 0.5
    drawMode: 0
    adaptiveTiling: 0
  m_AutoTiling: 0
  m_Points:
    m_Paths:
    - - {x: 0.93333334, y: -4.78}
      - {x: 0.93333334, y: -4.9266667}
      - {x: 0.96000004, y: -4.94}
      - {x: 1, y: -4.9266667}
      - {x: 1.0133333, y: -4.846667}
      - {x: 1.0133333, y: -4.7933335}
      - {x: 0.9866667, y: -4.78}
    - - {x: 0.96000004, y: -4.7533336}
      - {x: 0.9866667, y: -4.78}
      - {x: 1.0266666, y: -4.766667}
      - {x: 1.0266666, y: -4.726667}
      - {x: 1, y: -4.7000003}
      - {x: 0.96000004, y: -4.7133336}
    - - {x: 0.9866667, y: -4.4733334}
      - {x: 0.97333336, y: -4.58}
      - {x: 0.97333336, y: -4.686667}
      - {x: 1, y: -4.7000003}
      - {x: 1.0533334, y: -4.7000003}
      - {x: 1.0666667, y: -4.5933332}
      - {x: 1.0666667, y: -4.4866667}
      - {x: 1.0400001, y: -4.4733334}
    - - {x: 1.0133333, y: -4.4466667}
      - {x: 1.0400001, y: -4.4733334}
      - {x: 1.08, y: -4.46}
      - {x: 1.08, y: -4.42}
      - {x: 1.0533334, y: -4.3933334}
      - {x: 1.0133333, y: -4.4066668}
    - - {x: 1.0400001, y: -4.166667}
      - {x: 1.0266666, y: -4.2733335}
      - {x: 1.0266666, y: -4.38}
      - {x: 1.0533334, y: -4.3933334}
      - {x: 1.1066667, y: -4.3933334}
      - {x: 1.12, y: -4.286667}
      - {x: 1.12, y: -4.1800003}
      - {x: 1.0933334, y: -4.166667}
    - - {x: 1.0666667, y: -4.14}
      - {x: 1.0933334, y: -4.166667}
      - {x: 1.1333333, y: -4.1533337}
      - {x: 1.1333333, y: -4.113333}
      - {x: 1.1066667, y: -4.0866666}
      - {x: 1.0666667, y: -4.1}
    - - {x: 1.0933334, y: -3.8600001}
      - {x: 1.08, y: -3.9666667}
      - {x: 1.08, y: -4.0733333}
      - {x: 1.1066667, y: -4.0866666}
      - {x: 1.1600001, y: -4.0866666}
      - {x: 1.1733334, y: -3.98}
      - {x: 1.1733334, y: -3.8733335}
      - {x: 1.1466666, y: -3.8600001}
    - - {x: 1.12, y: -3.8333335}
      - {x: 1.1466666, y: -3.8600001}
      - {x: 1.1866667, y: -3.8466668}
      - {x: 1.1866667, y: -3.8066669}
      - {x: 1.1600001, y: -3.7800002}
      - {x: 1.12, y: -3.7933335}
    - - {x: 1.1466666, y: -3.5533335}
      - {x: 1.1333333, y: -3.66}
      - {x: 1.1333333, y: -3.7666667}
      - {x: 1.1600001, y: -3.7800002}
      - {x: 1.2133334, y: -3.7800002}
      - {x: 1.2266667, y: -3.6733334}
      - {x: 1.2266667, y: -3.5666668}
      - {x: 1.2, y: -3.5533335}
    - - {x: 1.1733334, y: -3.5266666}
      - {x: 1.2, y: -3.5533335}
      - {x: 1.24, y: -3.5400002}
      - {x: 1.24, y: -3.5}
      - {x: 1.2133334, y: -3.4733334}
      - {x: 1.1733334, y: -3.4866667}
    - - {x: 1.2, y: -3.2466667}
      - {x: 1.1866667, y: -3.3533335}
      - {x: 1.1866667, y: -3.46}
      - {x: 1.2133334, y: -3.4733334}
      - {x: 1.2666667, y: -3.4733334}
      - {x: 1.28, y: -3.3666668}
      - {x: 1.28, y: -3.26}
      - {x: 1.2533333, y: -3.2466667}
    - - {x: 1.2266667, y: -3.22}
      - {x: 1.2533333, y: -3.2466667}
      - {x: 1.2933334, y: -3.2333333}
      - {x: 1.2933334, y: -3.1933334}
      - {x: 1.2666667, y: -3.1666667}
      - {x: 1.2266667, y: -3.18}
    - - {x: 1.24, y: -3.14}
      - {x: 1.2666667, y: -3.1666667}
      - {x: 1.3066667, y: -3.1533334}
      - {x: 1.3066667, y: -3.1133335}
      - {x: 1.28, y: -3.0866668}
      - {x: 1.24, y: -3.1000001}
    - - {x: 1.2666667, y: -2.9533334}
      - {x: 1.2533333, y: -3.0066667}
      - {x: 1.2533333, y: -3.0866668}
      - {x: 1.3066667, y: -3.0866668}
      - {x: 1.3333334, y: -3.0466666}
      - {x: 1.3333334, y: -2.9533334}
      - {x: 1.3066667, y: -2.94}
    - - {x: 1.28, y: -2.8733335}
      - {x: 1.28, y: -2.9133334}
      - {x: 1.3066667, y: -2.94}
      - {x: 1.3333334, y: -2.9266667}
      - {x: 1.3333334, y: -2.8733335}
      - {x: 1.32, y: -2.8600001}
    - - {x: 1.2533333, y: -2.6333334}
      - {x: 0.21333334, y: -1.0866667}
      - {x: 0.16, y: -1.0066667}
      - {x: 0.08, y: -0.90000004}
      - {x: 0.06666667, y: -0.8466667}
      - {x: 0.013333334, y: -0.7666667}
      - {x: -0.25333333, y: -0.38}
      - {x: -0.30666667, y: -0.3}
      - {x: -0.41333336, y: -0.15333334}
      - {x: -0.36, y: -0.086666666}
      - {x: -0.30666667, y: 0.006666667}
      - {x: -0.22666667, y: 0.14}
      - {x: -0.17333333, y: 0.23333333}
      - {x: -0.093333334, y: 0.36666667}
      - {x: -0.04, y: 0.46}
      - {x: 0.04, y: 0.59333336}
      - {x: 0.093333334, y: 0.68666667}
      - {x: 0.17333333, y: 0.82}
      - {x: 0.22666667, y: 0.91333336}
      - {x: 0.30666667, y: 1.0466667}
      - {x: 0.48000002, y: 1.34}
      - {x: 0.74666667, y: 1.7933334}
      - {x: 0.76, y: 1.8466667}
      - {x: 0.73333335, y: 1.9133334}
      - {x: 0.53333336, y: 2.2466667}
      - {x: 0.26666668, y: 2.6733334}
      - {x: 0.2, y: 2.7933333}
      - {x: -0.04, y: 3.1933334}
      - {x: -0.18666667, y: 3.4333334}
      - {x: -0.30666667, y: 3.6333334}
      - {x: -0.37333333, y: 3.74}
      - {x: -0.61333334, y: 4.14}
      - {x: -0.68, y: 4.246667}
      - {x: -0.88, y: 4.58}
      - {x: -0.9866667, y: 4.7533336}
      - {x: -0.93333334, y: 4.766667}
      - {x: -0.8666667, y: 4.846667}
      - {x: -0.88, y: 4.886667}
      - {x: -0.8933334, y: 4.94}
      - {x: -1.0133333, y: 4.94}
      - {x: -1.12, y: 4.9}
      - {x: -1.2666667, y: 4.846667}
      - {x: -1.3333334, y: 4.806667}
      - {x: -1.3333334, y: 4.7533336}
      - {x: -1.2666667, y: 4.7000003}
      - {x: -1.1600001, y: 4.7133336}
      - {x: -1.12, y: 4.726667}
      - {x: -1.08, y: 4.78}
      - {x: -1.0400001, y: 4.686667}
      - {x: -0.92, y: 4.4866667}
      - {x: -0.84000003, y: 4.366667}
      - {x: -0.7733334, y: 4.246667}
      - {x: -0.5733333, y: 3.9133334}
      - {x: -0.50666666, y: 3.8066669}
      - {x: -0.26666668, y: 3.4066668}
      - {x: -0.2, y: 3.3000002}
      - {x: 0, y: 2.9666667}
      - {x: 0.06666667, y: 2.8600001}
      - {x: 0.30666667, y: 2.46}
      - {x: 0.37333333, y: 2.3533335}
      - {x: 0.5733333, y: 2.02}
      - {x: 0.62666667, y: 1.9533334}
      - {x: 0.6933333, y: 1.8333334}
      - {x: 0.6666667, y: 1.82}
      - {x: 0.5733333, y: 1.6600001}
      - {x: 0.49333334, y: 1.5266668}
      - {x: 0.36, y: 1.3000001}
      - {x: 0.30666667, y: 1.2066667}
      - {x: 0.22666667, y: 1.0733334}
      - {x: 0.17333333, y: 0.98}
      - {x: 0.093333334, y: 0.8466667}
      - {x: 0.04, y: 0.75333333}
      - {x: -0.04, y: 0.62}
      - {x: -0.093333334, y: 0.5266667}
      - {x: -0.17333333, y: 0.39333335}
      - {x: -0.22666667, y: 0.3}
      - {x: -0.30666667, y: 0.16666667}
      - {x: -0.36, y: 0.07333334}
      - {x: -0.44, y: -0.060000002}
      - {x: -0.46666667, y: -0.14}
      - {x: -0.46666667, y: -0.18}
      - {x: 0.46666667, y: -1.58}
      - {x: 0.5466667, y: -1.6866667}
      - {x: 0.56, y: -1.74}
      - {x: 0.61333334, y: -1.82}
      - {x: 1.2533333, y: -2.7666667}
      - {x: 1.3066667, y: -2.8600001}
      - {x: 1.3333334, y: -2.8600001}
      - {x: 1.3333334, y: -2.7666667}
      - {x: 1.3066667, y: -2.7133334}
--- !u!114 &6309804239102168449
MonoBehaviour:
  m_ObjectHideFlags: 0
  m_CorrespondingSourceObject: {fileID: 0}
  m_PrefabInstance: {fileID: 0}
  m_PrefabAsset: {fileID: 0}
  m_GameObject: {fileID: 6309804239142835185}
  m_Enabled: 1
  m_EditorHideFlags: 0
  m_Script: {fileID: 11500000, guid: 4560961577d30194987e62e5c543402e, type: 3}
  m_Name: 
  m_EditorClassIdentifier: 
  flashSprite: {fileID: 21300000, guid: 9dfadf8a3eaa7f64e939ddaa8b9d840e, type: 3}
